Homework3quarto
…
Attaching package: 'dplyr'

The following objects are masked from 'package:stats':

    filter, lag

The following objects are masked from 'package:base':

    intersect, setdiff, setequal, union

arrange(filter(select(as_tibble(iris), starts_with("Petal"), Species), Petal.Length <
1.55), Species)

# A tibble: 37 × 3
   Petal.Length Petal.Width Species
          <dbl>       <dbl> <fct>  
 1          1.4         0.2 setosa 
 2          1.4         0.2 setosa 
 3          1.3         0.2 setosa 
 4          1.5         0.2 setosa 
 5          1.4         0.2 setosa 
 6          1.4         0.3 setosa 
 7          1.5         0.2 setosa 
 8          1.4         0.2 setosa 
 9          1.5         0.1 setosa 
10          1.5         0.2 setosa 
# ℹ 27 more rows

Rewritten code:

iris |>
  as_tibble() |>
  select(starts_with("Petal"), Species) |>
  filter(Petal.Length < 1.55) |>
  arrange(Species)

# A tibble: 37 × 3
   Petal.Length Petal.Width Species
          <dbl>       <dbl> <fct>  
 1          1.4         0.2 setosa 
 2          1.4         0.2 setosa 
 3          1.3         0.2 setosa 
 4          1.5         0.2 setosa 
 5          1.4         0.2 setosa 
 6          1.4         0.3 setosa 
 7          1.5         0.2 setosa 
 8          1.4         0.2 setosa 
 9          1.5         0.1 setosa 
10          1.5         0.2 setosa 
# ℹ 27 more rows
…
glass <- glass |>
  mutate(Type_of_Glass = 
              ifelse(Type_of_Glass == 1, "building_windows_float_processed",
              ifelse(Type_of_Glass == 2, "building_windows_non_float_processed",
              ifelse(Type_of_Glass == 3, "vehicle_windows_float_processed",
              ifelse(Type_of_Glass == 4, "vehicle_windows_non_float_processed",
              ifelse(Type_of_Glass == 5, "containers",
              ifelse(Type_of_Glass == 6, "tableware", "headlamps"))))))) |>
# now i will filter to only keep rows where Fe < 0.2 and the type of glass is either tableware and headlamps.
  filter(Fe < 0.2, Type_of_Glass == "tableware" | Type_of_Glass == "headlamps")
# printing the data:
glass

# A tibble: 38 × 11
      Id    RI    Na    Mg    Al    Si     K    Ca    Ba    Fe Type_of_Glass
   <dbl> <dbl> <dbl> <dbl> <dbl> <dbl> <dbl> <dbl> <dbl> <dbl> <chr>        
 1   177  1.52  14    2.39  1.56  72.4  0     9.57  0        0 tableware    
 2   178  1.52  13.8  2.41  1.19  72.8  0     9.77  0        0 tableware    
 3   179  1.52  14.5  2.24  1.62  72.4  0     9.26  0        0 tableware    
 4   180  1.52  14.1  2.19  1.66  72.7  0     9.32  0        0 tableware    
 5   181  1.51  14.4  1.74  1.54  74.6  0     7.59  0        0 tableware    
 6   182  1.52  15.0  0.78  1.74  72.5  0     9.95  0        0 tableware    
 7   183  1.52  14.2  0     2.09  72.7  0    10.9   0        0 tableware    
 8   184  1.52  14.6  0     0.56  73.5  0    11.2   0        0 tableware    
 9   185  1.51  17.4  0     0.34  75.4  0     6.65  0        0 tableware    
10   186  1.51  13.7  3.2   1.81  72.8  1.76  5.43  1.19     0 headlamps    
# ℹ 28 more rows
…
Now I will manipulate the data:

yeast <- yeast |>
  select(-c("seq_name","nuc")) |> # only selecting columns that are not seq_name, nuc
  group_by(class) |> # grouping by class
  mutate(
         across(where(is.numeric), mean, .names = "mean_{.col}"),
         across(where(is.numeric) & !starts_with("mean"), median, .names = "median_{.col}"))

# here I am adding mean to the numeric columns and then adding median to the same columns, but I had to specify to not apply it to those that starts with mean
         
# printing the data:
yeast

# A tibble: 1,484 × 22
# Groups:   class [8]
     mcg   gvh   alm   mit   erl   pox   vac class mean_mcg mean_gvh mean_alm
   <dbl> <dbl> <dbl> <dbl> <dbl> <dbl> <dbl> <chr>    <dbl>    <dbl>    <dbl>
 1  0.58  0.61  0.47  0.13   0.5   0    0.48 MI       0.521    0.533    0.517
 2  0.43  0.67  0.48  0.27   0.5   0    0.53 MI       0.521    0.533    0.517
 3  0.64  0.62  0.49  0.15   0.5   0    0.53 MI       0.521    0.533    0.517
 4  0.58  0.44  0.57  0.13   0.5   0    0.54 NU       0.452    0.456    0.529
 5  0.42  0.44  0.48  0.54   0.5   0    0.48 MI       0.521    0.533    0.517
 6  0.51  0.4   0.56  0.17   0.5   0.5  0.49 CY       0.481    0.470    0.535
 7  0.5   0.54  0.48  0.65   0.5   0    0.53 MI       0.521    0.533    0.517
 8  0.48  0.45  0.59  0.2    0.5   0    0.58 NU       0.452    0.456    0.529
 9  0.55  0.5   0.66  0.36   0.5   0    0.49 MI       0.521    0.533    0.517
10  0.4   0.39  0.6   0.15   0.5   0    0.58 CY       0.481    0.470    0.535
# ℹ 1,474 more rows
# ℹ 11 more variables: mean_mit <dbl>, mean_erl <dbl>, mean_pox <dbl>,
#   mean_vac <dbl>, median_mcg <dbl>, median_gvh <dbl>, median_alm <dbl>,
#   median_mit <dbl>, median_erl <dbl>, median_pox <dbl>, median_vac <dbl>

Task 2: Combining Excel and Delimited Data

Reading in excel data:

library(readxl)

Warning: package 'readxl' was built under R version 4.3.3

white_wine <- read_excel("white-wine.xlsx")
# printing the data:
white_wine

# A tibble: 4,898 × 12
   `fixed acidity` `volatile acidity` `citric acid` `residual sugar` chlorides
             <dbl>              <dbl>         <dbl>            <dbl>     <dbl>
 1               7               0.27          0.36             20.7     0.045
 2              63               0.3           0.34              1.6     0.049
 3              81               0.28          0.4               6.9     0.05 
 4              72               0.23          0.32              8.5     0.058
 5              72               0.23          0.32              8.5     0.058
 6              81               0.28          0.4               6.9     0.05 
 7              62               0.32          0.16              7       0.045
 8               7               0.27          0.36             20.7     0.045
 9              63               0.3           0.34              1.6     0.049
10              81               0.22          0.43              1.5     0.044
# ℹ 4,888 more rows
# ℹ 7 more variables: `free sulfur dioxide` <dbl>,
#   `total sulfur dioxide` <dbl>, density <dbl>, pH <dbl>, sulphates <dbl>,
#   alcohol <dbl>, quality <dbl>
…
final <- inner_join(managers,
                    hall_of_fame_names, 
                    by = join_by(playerID == playerID)) |> 
  collect()
# printing the data set
final

# A tibble: 97 × 9
   playerID  G_managed Total_W Total_L `Total_W/G_managed` nameFirst nameLast  
   <chr>         <int>   <int>   <int>               <dbl> <chr>     <chr>     
 1 simmote01         1       1       0               1     Ted       Simmons   
 2 wrighge01        85      59      25               0.694 George    Wright    
 3 spaldal01       126      78      47               0.619 Al        Spalding  
 4 mccarjo99      3487    2125    1333               0.609 Joe       McCarthy  
 5 comisch01      1410     840     541               0.596 Charlie   Comiskey  
 6 southbi01      1770    1044     704               0.590 Billy     Southworth
 7 seleefr99      2180    1284     862               0.589 Frank     Selee     
 8 chancfr01      1622     946     648               0.583 Frank     Chance    
 9 weaveea99      2541    1480    1060               0.582 Earl      Weaver    
10 lopezal01      2425    1410    1004               0.581 Al        Lopez     
# ℹ 87 more rows
# ℹ 2 more variables: yearID <int>, category <chr>
